{
  "command" : "fwmultik_stat_monitoring-vsx",
  "metrics" : [ {
    "tags" : {
      "display-name" : "CoreXL - Cores Enabled",
      "im.metric-type" : "runtime",
      "im.name" : "corexl-cores-enabled",
      "live-config" : "true",
      "vs.id" : "0",
      "vs.name" : "lab-CP-VSXVSLS-1-R7730"
    },
    "value" : {
      "value" : "4"
    }
  }, {
    "tags" : {
      "display-name" : "CoreXL - Cores Enabled",
      "im.metric-type" : "runtime",
      "im.name" : "corexl-cores-enabled",
      "live-config" : "true",
      "vs.id" : "2",
      "vs.name" : "lab-CP-VSXVSLS-1-R7730_lab-VS3"
    },
    "value" : {
      "value" : "2"
    }
  }, {
    "tags" : {
      "cpu-id" : "0",
      "im.dstype" : "gauge",
      "im.metric-type" : "ts",
      "im.name" : "corexl-cpu-connections",
      "im.step" : "300",
      "vs.id" : "0",
      "vs.name" : "lab-CP-VSXVSLS-1-R7730"
    },
    "values" : ["8.0", "7014", "511"]
  }, {
    "tags" : {
      "cpu-id" : "0",
      "im.dstype" : "gauge",
      "im.metric-type" : "ts",
      "im.name" : "corexl-cpu-connections",
      "im.step" : "300",
      "vs.id" : "2",
      "vs.name" : "lab-CP-VSXVSLS-1-R7730_lab-VS3"
    },
    "values" : ["8.0", "7014", "511"]
  }, {
    "tags" : {
      "cpu-id" : "1",
      "im.dstype" : "gauge",
      "im.metric-type" : "ts",
      "im.name" : "corexl-cpu-connections",
      "im.step" : "300",
      "vs.id" : "0",
      "vs.name" : "lab-CP-VSXVSLS-1-R7730"
    },
    "values" : ["8.0", "7014", "511"]
  }, {
    "tags" : {
      "cpu-id" : "1",
      "im.dstype" : "gauge",
      "im.metric-type" : "ts",
      "im.name" : "corexl-cpu-connections",
      "im.step" : "300",
      "vs.id" : "2",
      "vs.name" : "lab-CP-VSXVSLS-1-R7730_lab-VS3"
    },
    "values" : ["8.0", "7014", "511"]
  }, {
    "tags" : {
      "cpu-id" : "2",
      "im.dstype" : "gauge",
      "im.metric-type" : "ts",
      "im.name" : "corexl-cpu-connections",
      "im.step" : "300",
      "vs.id" : "0",
      "vs.name" : "lab-CP-VSXVSLS-1-R7730"
    },
    "values" : ["8.0", "7014", "511"]
  }, {
    "tags" : {
      "cpu-id" : "3",
      "im.dstype" : "gauge",
      "im.metric-type" : "ts",
      "im.name" : "corexl-cpu-connections",
      "im.step" : "300",
      "vs.id" : "0",
      "vs.name" : "lab-CP-VSXVSLS-1-R7730"
    },
    "values" : ["8.0", "7014", "511"]
  } ]
}
