{
  "command" : "chkp-vsx-stat-monitoring",
  "metrics" : [ {
    "tags" : {
      "im.dstype" : "gauge",
      "im.metric-type" : "ts",
      "im.name" : "license-elements-limit",
      "im.step" : "300",
      "name" : "virtual-systems"
    },
    "value" : "10.0"
  }, {
    "tags" : {
      "im.dstype" : "gauge",
      "im.metric-type" : "ts",
      "im.name" : "license-elements-used",
      "im.step" : "300",
      "name" : "virtual-systems"
    },
    "value" : "8.0"
  } ]
}
