{
  "command" : "panos-show-system_disk-space",
  "metrics" : [ {
    "tags" : {
      "display-name" : "Mount Points",
      "file-system" : "/",
      "im.dstype" : "gauge",
      "im.dstype.displaytype" : "percentage",
      "im.identity-tags" : "file-system",
      "im.metric-type" : "ts",
      "im.name" : "disk-usage-percentage",
      "im.step" : "600",
      "live-config" : "true"
    },
    "value" : "88.0"
  }, {
    "tags" : {
      "display-name" : "Mount Points - Total Space",
      "file-system" : "/dev/shm",
      "im.dstype" : "gauge",
      "im.dstype.displaytype" : "kilobytes",
      "im.identity-tags" : "file-system",
      "im.metric-type" : "ts",
      "im.name" : "disk-total-kbytes",
      "im.step" : "600",
      "live-config" : "true"
    },
    "value" : "2109030.4"
  }, {
    "tags" : {
      "display-name" : "Mount Points - Total Space",
      "file-system" : "/opt/pancfg",
      "im.dstype" : "gauge",
      "im.dstype.displaytype" : "kilobytes",
      "im.identity-tags" : "file-system",
      "im.metric-type" : "ts",
      "im.name" : "disk-total-kbytes",
      "im.step" : "600",
      "live-config" : "true"
    },
    "value" : "7549747.2"
  }, {
    "tags" : {
      "display-name" : "Mount Points - Total Space",
      "file-system" : "/opt/panlogs",
      "im.dstype" : "gauge",
      "im.dstype.displaytype" : "kilobytes",
      "im.identity-tags" : "file-system",
      "im.metric-type" : "ts",
      "im.name" : "disk-total-kbytes",
      "im.step" : "600",
      "live-config" : "true"
    },
    "value" : "1.74063616E7"
  }, {
    "tags" : {
      "display-name" : "Mount Points",
      "file-system" : "/dev/shm",
      "im.dstype" : "gauge",
      "im.dstype.displaytype" : "percentage",
      "im.identity-tags" : "file-system",
      "im.metric-type" : "ts",
      "im.name" : "disk-usage-percentage",
      "im.step" : "600",
      "live-config" : "true"
    },
    "values" : ["95.0", "93", "92", "93"]
  }, {
    "tags" : {
      "display-name" : "Mount Points",
      "file-system" : "/opt/pancfg",
      "im.dstype" : "gauge",
      "im.dstype.displaytype" : "percentage",
      "im.identity-tags" : "file-system",
      "im.metric-type" : "ts",
      "im.name" : "disk-usage-percentage",
      "im.step" : "600",
      "live-config" : "true"
    },
    "value" : "28.0"
  }, {
    "tags" : {
      "display-name" : "Mount Points",
      "file-system" : "/opt/panrepo",
      "im.dstype" : "gauge",
      "im.dstype.displaytype" : "percentage",
      "im.identity-tags" : "file-system",
      "im.metric-type" : "ts",
      "im.name" : "disk-usage-percentage",
      "im.step" : "600",
      "live-config" : "true"
    },
    "values" : ["95.0", "93", "92", "93"]
  }, {
    "tags" : {
      "display-name" : "Mount Points - Total Space",
      "file-system" : "/",
      "im.dstype" : "gauge",
      "im.dstype.displaytype" : "kilobytes",
      "im.identity-tags" : "file-system",
      "im.metric-type" : "ts",
      "im.name" : "disk-total-kbytes",
      "im.step" : "600",
      "live-config" : "true"
    },
    "value" : "3879731.2"
  }, {
    "tags" : {
      "display-name" : "Mount Points - Total Space",
      "file-system" : "/opt/panrepo",
      "im.dstype" : "gauge",
      "im.dstype.displaytype" : "kilobytes",
      "im.identity-tags" : "file-system",
      "im.metric-type" : "ts",
      "im.name" : "disk-total-kbytes",
      "im.step" : "600",
      "live-config" : "true"
    },
    "value" : "3879731.2"
  }, {
    "tags" : {
      "display-name" : "Mount Points",
      "file-system" : "/opt/panlogs",
      "im.dstype" : "gauge",
      "im.dstype.displaytype" : "percentage",
      "im.identity-tags" : "file-system",
      "im.metric-type" : "ts",
      "im.name" : "disk-usage-percentage",
      "im.step" : "600",
      "live-config" : "true"
    },
    "values" : ["95.0", "93", "92", "93"]
  }, {
    "tags" : {
      "display-name" : "Mount Points - Used Space",
      "file-system" : "/",
      "im.dstype" : "gauge",
      "im.dstype.displaytype" : "kilobytes",
      "im.identity-tags" : "file-system",
      "im.metric-type" : "ts",
      "im.name" : "disk-used-kbytes",
      "im.step" : "600",
      "live-config" : "true"
    },
    "value" : "2202009.6"
  }, {
    "tags" : {
      "display-name" : "Mount Points - Used Space",
      "file-system" : "/dev/shm",
      "im.dstype" : "gauge",
      "im.dstype.displaytype" : "kilobytes",
      "im.identity-tags" : "file-system",
      "im.metric-type" : "ts",
      "im.name" : "disk-used-kbytes",
      "im.step" : "600",
      "live-config" : "true"
    },
    "value" : "1992294.4"
  }, {
    "tags" : {
      "display-name" : "Mount Points - Used Space",
      "file-system" : "/opt/pancfg",
      "im.dstype" : "gauge",
      "im.dstype.displaytype" : "kilobytes",
      "im.identity-tags" : "file-system",
      "im.metric-type" : "ts",
      "im.name" : "disk-used-kbytes",
      "im.step" : "600",
      "live-config" : "true"
    },
    "value" : "2097152.0"
  }, {
    "tags" : {
      "display-name" : "Mount Points - Used Space",
      "file-system" : "/opt/panlogs",
      "im.dstype" : "gauge",
      "im.dstype.displaytype" : "kilobytes",
      "im.identity-tags" : "file-system",
      "im.metric-type" : "ts",
      "im.name" : "disk-used-kbytes",
      "im.step" : "600",
      "live-config" : "true"
    },
    "value" : "1677721.6"
  }, {
    "tags" : {
      "display-name" : "Mount Points - Used Space",
      "file-system" : "/opt/panrepo",
      "im.dstype" : "gauge",
      "im.dstype.displaytype" : "kilobytes",
      "im.identity-tags" : "file-system",
      "im.metric-type" : "ts",
      "im.name" : "disk-used-kbytes",
      "im.step" : "600",
      "live-config" : "true"
    },
    "value" : "1153433.6"
  } ]
}
