{
  "command" : "chkp-os-cpinfo_y_all",
  "metrics" : [ {
    "tags" : {
      "display-name" : "Installed Hotfixes",
      "im.metric-type" : "runtime",
      "im.name" : "hotfixes",
      "live-config" : "true"
    },
    "value" : [ {
      "name" : "HOTFIX_R77_30"
    }, {
      "name" : "HOTFIX_R77_30_JUMBO_HF"
    } ]
  } ]
}
